{
   "stable": {
      "description": "Stability over newer features (recommended)",
      "order": 1
   },
   "rc": {
      "description": "Testing before the next stable release",
      "order": 2
   },
   "devel": {
      "description": "Daily built development releases",
      "order": 3
   },
   "halium-devel": {
      "description": "Experimental ports to newer Halium",
      "order": 4
   },
   "edge": {
      "description": "Here be dragons",
      "order": 5
   }
}
